{
    "count": 1302,
    "next": "https://pokeapi.co/api/v2/pokemon?offset=120&limit=60",
    "previous": "https://pokeapi.co/api/v2/pokemon?offset=0&limit=60",
    "results": [
        {
            "name": "poliwhirl",
            "url": "https://pokeapi.co/api/v2/pokemon/61/"
        },
        {
            "name": "poliwrath",
            "url": "https://pokeapi.co/api/v2/pokemon/62/"
        },
        {
            "name": "abra",
            "url": "https://pokeapi.co/api/v2/pokemon/63/"
        },
        {
            "name": "kadabra",
            "url": "https://pokeapi.co/api/v2/pokemon/64/"
        },
        {
            "name": "alakazam",
            "url": "https://pokeapi.co/api/v2/pokemon/65/"
        },
        {
            "name": "machop",
            "url": "https://pokeapi.co/api/v2/pokemon/66/"
        },
        {
            "name": "machoke",
            "url": "https://pokeapi.co/api/v2/pokemon/67/"
        },
        {
            "name": "machamp",
            "url": "https://pokeapi.co/api/v2/pokemon/68/"
        },
        {
            "name": "bellsprout",
            "url": "https://pokeapi.co/api/v2/pokemon/69/"
        },
        {
            "name": "weepinbell",
            "url": "https://pokeapi.co/api/v2/pokemon/70/"
        },
        {
            "name": "victreebel",
            "url": "https://pokeapi.co/api/v2/pokemon/71/"
        },
        {
            "name": "tentacool",
            "url": "https://pokeapi.co/api/v2/pokemon/72/"
        },
        {
            "name": "tentacruel",
            "url": "https://pokeapi.co/api/v2/pokemon/73/"
        },
        {
            "name": "geodude",
            "url": "https://pokeapi.co/api/v2/pokemon/74/"
        },
        {
            "name": "graveler",
            "url": "https://pokeapi.co/api/v2/pokemon/75/"
        },
        {
            "name": "golem",
            "url": "https://pokeapi.co/api/v2/pokemon/76/"
        },
        {
            "name": "ponyta",
            "url": "https://pokeapi.co/api/v2/pokemon/77/"
        },
        {
            "name": "rapidash",
            "url": "https://pokeapi.co/api/v2/pokemon/78/"
        },
        {
            "name": "slowpoke",
            "url": "https://pokeapi.co/api/v2/pokemon/79/"
        },
        {
            "name": "slowbro",
            "url": "https://pokeapi.co/api/v2/pokemon/80/"
        },
        {
            "name": "magnemite",
            "url": "https://pokeapi.co/api/v2/pokemon/81/"
        },
        {
            "name": "magneton",
            "url": "https://pokeapi.co/api/v2/pokemon/82/"
        },
        {
            "name": "farfetchd",
            "url": "https://pokeapi.co/api/v2/pokemon/83/"
        },
        {
            "name": "doduo",
            "url": "https://pokeapi.co/api/v2/pokemon/84/"
        },
        {
            "name": "dodrio",
            "url": "https://pokeapi.co/api/v2/pokemon/85/"
        },
        {
            "name": "seel",
            "url": "https://pokeapi.co/api/v2/pokemon/86/"
        },
        {
            "name": "dewgong",
            "url": "https://pokeapi.co/api/v2/pokemon/87/"
        },
        {
            "name": "grimer",
            "url": "https://pokeapi.co/api/v2/pokemon/88/"
        },
        {
            "name": "muk",
            "url": "https://pokeapi.co/api/v2/pokemon/89/"
        },
        {
            "name": "shellder",
            "url": "https://pokeapi.co/api/v2/pokemon/90/"
        },
        {
            "name": "cloyster",
            "url": "https://pokeapi.co/api/v2/pokemon/91/"
        },
        {
            "name": "gastly",
            "url": "https://pokeapi.co/api/v2/pokemon/92/"
        },
        {
            "name": "haunter",
            "url": "https://pokeapi.co/api/v2/pokemon/93/"
        },
        {
            "name": "gengar",
            "url": "https://pokeapi.co/api/v2/pokemon/94/"
        },
        {
            "name": "onix",
            "url": "https://pokeapi.co/api/v2/pokemon/95/"
        },
        {
            "name": "drowzee",
            "url": "https://pokeapi.co/api/v2/pokemon/96/"
        },
        {
            "name": "hypno",
            "url": "https://pokeapi.co/api/v2/pokemon/97/"
        },
        {
            "name": "krabby",
            "url": "https://pokeapi.co/api/v2/pokemon/98/"
        },
        {
            "name": "kingler",
            "url": "https://pokeapi.co/api/v2/pokemon/99/"
        },
        {
            "name": "voltorb",
            "url": "https://pokeapi.co/api/v2/pokemon/100/"
        },
        {
            "name": "electrode",
            "url": "https://pokeapi.co/api/v2/pokemon/101/"
        },
        {
            "name": "exeggcute",
            "url": "https://pokeapi.co/api/v2/pokemon/102/"
        },
        {
            "name": "exeggutor",
            "url": "https://pokeapi.co/api/v2/pokemon/103/"
        },
        {
            "name": "cubone",
            "url": "https://pokeapi.co/api/v2/pokemon/104/"
        },
        {
            "name": "marowak",
            "url": "https://pokeapi.co/api/v2/pokemon/105/"
        },
        {
            "name": "hitmonlee",
            "url": "https://pokeapi.co/api/v2/pokemon/106/"
        },
        {
            "name": "hitmonchan",
            "url": "https://pokeapi.co/api/v2/pokemon/107/"
        },
        {
            "name": "lickitung",
            "url": "https://pokeapi.co/api/v2/pokemon/108/"
        },
        {
            "name": "koffing",
            "url": "https://pokeapi.co/api/v2/pokemon/109/"
        },
        {
            "name": "weezing",
            "url": "https://pokeapi.co/api/v2/pokemon/110/"
        },
        {
            "name": "rhyhorn",
            "url": "https://pokeapi.co/api/v2/pokemon/111/"
        },
        {
            "name": "rhydon",
            "url": "https://pokeapi.co/api/v2/pokemon/112/"
        },
        {
            "name": "chansey",
            "url": "https://pokeapi.co/api/v2/pokemon/113/"
        },
        {
            "name": "tangela",
            "url": "https://pokeapi.co/api/v2/pokemon/114/"
        },
        {
            "name": "kangaskhan",
            "url": "https://pokeapi.co/api/v2/pokemon/115/"
        },
        {
            "name": "horsea",
            "url": "https://pokeapi.co/api/v2/pokemon/116/"
        },
        {
            "name": "seadra",
            "url": "https://pokeapi.co/api/v2/pokemon/117/"
        },
        {
            "name": "goldeen",
            "url": "https://pokeapi.co/api/v2/pokemon/118/"
        },
        {
            "name": "seaking",
            "url": "https://pokeapi.co/api/v2/pokemon/119/"
        },
        {
            "name": "staryu",
            "url": "https://pokeapi.co/api/v2/pokemon/120/"
        }
    ]
}